{
  "winners": {
    "S-6662": [
      "ProgExample"
    ],
    "A-163816": [
      "ProgExample"
    ],
    "B-169410": [
      "ProgExample"
    ],
    "C-116626": [
      "ProgExample"
    ],
    "D-167975": [
      "ProgExample"
    ]
  }
}