{
  "items": [
    {
      "id": 34498,
      "tier": "S",
      "giftQuantity": 5,
      "remainingQuantity": 0
    },
    {
      "id": 18662,
      "tier": "S",
      "giftQuantity": 5,
      "remainingQuantity": 0
    },
    {
      "id": 128768,
      "tier": "S",
      "giftQuantity": 5,
      "remainingQuantity": 0
    },
    {
      "id": 34068,
      "tier": "S",
      "giftQuantity": 5,
      "remainingQuantity": 2
    },
    {
      "id": 172068,
      "tier": "S",
      "giftQuantity": 5,
      "remainingQuantity": 2
    },
    {
      "id": 154891,
      "tier": "S",
      "giftQuantity": 20,
      "remainingQuantity": 9
    },
    {
      "id": 160092,
      "tier": "S",
      "giftQuantity": 5,
      "remainingQuantity": 0
    },
    {
      "id": 6657,
      "tier": "S",
      "giftQuantity": 5,
      "remainingQuantity": 0
    },
    {
      "id": 6662,
      "tier": "S",
      "giftQuantity": 5,
      "remainingQuantity": 4
    },
    {
      "id": 184090,
      "tier": "S",
      "giftQuantity": 3,
      "remainingQuantity": 0
    },
    {
      "id": 118006,
      "tier": "S",
      "giftQuantity": 3,
      "remainingQuantity": 2
    },
    {
      "id": 3857,
      "tier": "S",
      "giftQuantity": 5,
      "remainingQuantity": 3
    },
    {
      "id": 21213,
      "tier": "S",
      "giftQuantity": 5,
      "remainingQuantity": 2
    },
    {
      "id": 128632,
      "tier": "S",
      "giftQuantity": 5,
      "remainingQuantity": 0
    },
    {
      "id": 201461,
      "tier": "A",
      "giftQuantity": 1,
      "remainingQuantity": 0
    },
    {
      "id": 201460,
      "tier": "A",
      "giftQuantity": 1,
      "remainingQuantity": 0
    },
    {
      "id": 201455,
      "tier": "A",
      "giftQuantity": 1,
      "remainingQuantity": 1
    },
    {
      "id": 167195,
      "tier": "A",
      "giftQuantity": 1,
      "remainingQuantity": 0
    },
    {
      "id": 167194,
      "tier": "A",
      "giftQuantity": 1,
      "remainingQuantity": 0
    },
    {
      "id": 167177,
      "tier": "A",
      "giftQuantity": 1,
      "remainingQuantity": 0
    },
    {
      "id": 205026,
      "tier": "A",
      "giftQuantity": 1,
      "remainingQuantity": 1
    },
    {
      "id": 180635,
      "tier": "A",
      "giftQuantity": 1,
      "remainingQuantity": 0
    },
    {
      "id": 33154,
      "tier": "A",
      "giftQuantity": 1,
      "remainingQuantity": 0
    },
    {
      "id": 199109,
      "tier": "A",
      "giftQuantity": 1,
      "remainingQuantity": 1
    },
    {
      "id": 180872,
      "tier": "A",
      "giftQuantity": 1,
      "remainingQuantity": 0
    },
    {
      "id": 182671,
      "tier": "A",
      "giftQuantity": 1,
      "remainingQuantity": 0
    },
    {
      "id": 180629,
      "tier": "A",
      "giftQuantity": 1,
      "remainingQuantity": 0
    },
    {
      "id": 183192,
      "tier": "A",
      "giftQuantity": 1,
      "remainingQuantity": 0
    },
    {
      "id": 182606,
      "tier": "A",
      "giftQuantity": 1,
      "remainingQuantity": 0
    },
    {
      "id": 183623,
      "tier": "A",
      "giftQuantity": 1,
      "remainingQuantity": 0
    },
    {
      "id": 182673,
      "tier": "A",
      "giftQuantity": 1,
      "remainingQuantity": 0
    },
    {
      "id": 183621,
      "tier": "A",
      "giftQuantity": 1,
      "remainingQuantity": 0
    },
    {
      "id": 166718,
      "tier": "A",
      "giftQuantity": 1,
      "remainingQuantity": 0
    },
    {
      "id": 39709,
      "tier": "A",
      "giftQuantity": 1,
      "remainingQuantity": 0
    },
    {
      "id": 166719,
      "tier": "A",
      "giftQuantity": 1,
      "remainingQuantity": 2
    },
    {
      "id": 174457,
      "tier": "A",
      "giftQuantity": 1,
      "remainingQuantity": 0
    },
    {
      "id": 163816,
      "tier": "A",
      "giftQuantity": 1,
      "remainingQuantity": 0
    },
    {
      "id": 163819,
      "tier": "A",
      "giftQuantity": 1,
      "remainingQuantity": 0
    },
    {
      "id": 166499,
      "tier": "A",
      "giftQuantity": 1,
      "remainingQuantity": 0
    },
    {
      "id": 44794,
      "tier": "A",
      "giftQuantity": 1,
      "remainingQuantity": 0
    },
    {
      "id": 204705,
      "tier": "A",
      "giftQuantity": 500,
      "remainingQuantity": 10
    },
    {
      "id": 33924,
      "tier": "B",
      "giftQuantity": 1,
      "remainingQuantity": 0
    },
    {
      "id": 201390,
      "tier": "B",
      "giftQuantity": 1,
      "remainingQuantity": 0
    },
    {
      "id": 201388,
      "tier": "B",
      "giftQuantity": 1,
      "remainingQuantity": 0
    },
    {
      "id": 201387,
      "tier": "B",
      "giftQuantity": 1,
      "remainingQuantity": 0
    },
    {
      "id": 170119,
      "tier": "B",
      "giftQuantity": 1,
      "remainingQuantity": 1
    },
    {
      "id": 170115,
      "tier": "B",
      "giftQuantity": 1,
      "remainingQuantity": 0
    },
    {
      "id": 159597,
      "tier": "B",
      "giftQuantity": 1,
      "remainingQuantity": 1
    },
    {
      "id": 201459,
      "tier": "B",
      "giftQuantity": 1,
      "remainingQuantity": 0
    },
    {
      "id": 116721,
      "tier": "B",
      "giftQuantity": 1,
      "remainingQuantity": 0
    },
    {
      "id": 45849,
      "tier": "B",
      "giftQuantity": 1,
      "remainingQuantity": 1
    },
    {
      "id": 201458,
      "tier": "B",
      "giftQuantity": 1,
      "remainingQuantity": 0
    },
    {
      "id": 201457,
      "tier": "B",
      "giftQuantity": 1,
      "remainingQuantity": 0
    },
    {
      "id": 160180,
      "tier": "B",
      "giftQuantity": 1,
      "remainingQuantity": 0
    },
    {
      "id": 169410,
      "tier": "B",
      "giftQuantity": 1,
      "remainingQuantity": 0
    },
    {
      "id": 192871,
      "tier": "B",
      "giftQuantity": 1,
      "remainingQuantity": 9
    },
    {
      "id": 167182,
      "tier": "B",
      "giftQuantity": 1,
      "remainingQuantity": 0
    },
    {
      "id": 167082,
      "tier": "B",
      "giftQuantity": 1,
      "remainingQuantity": 0
    },
    {
      "id": 167081,
      "tier": "B",
      "giftQuantity": 1,
      "remainingQuantity": 0
    },
    {
      "id": 180752,
      "tier": "B",
      "giftQuantity": 1,
      "remainingQuantity": 3
    },
    {
      "id": 71951,
      "tier": "B",
      "giftQuantity": 1,
      "remainingQuantity": 0
    },
    {
      "id": 71715,
      "tier": "B",
      "giftQuantity": 1,
      "remainingQuantity": 0
    },
    {
      "id": 204705,
      "tier": "B",
      "giftQuantity": 1000,
      "remainingQuantity": 8
    },
    {
      "id": 159489,
      "tier": "C",
      "giftQuantity": 1,
      "remainingQuantity": 1
    },
    {
      "id": 161915,
      "tier": "C",
      "giftQuantity": 1,
      "remainingQuantity": 1
    },
    {
      "id": 116510,
      "tier": "C",
      "giftQuantity": 1,
      "remainingQuantity": 1
    },
    {
      "id": 71361,
      "tier": "C",
      "giftQuantity": 1,
      "remainingQuantity": 1
    },
    {
      "id": 71360,
      "tier": "C",
      "giftQuantity": 1,
      "remainingQuantity": 1
    },
    {
      "id": 55342,
      "tier": "C",
      "giftQuantity": 1,
      "remainingQuantity": 0
    },
    {
      "id": 161919,
      "tier": "C",
      "giftQuantity": 1,
      "remainingQuantity": 2
    },
    {
      "id": 163927,
      "tier": "C",
      "giftQuantity": 1,
      "remainingQuantity": 0
    },
    {
      "id": 116626,
      "tier": "C",
      "giftQuantity": 1,
      "remainingQuantity": 0
    },
    {
      "id": 116490,
      "tier": "C",
      "giftQuantity": 1,
      "remainingQuantity": 0
    },
    {
      "id": 71006,
      "tier": "C",
      "giftQuantity": 1,
      "remainingQuantity": 0
    },
    {
      "id": 201395,
      "tier": "C",
      "giftQuantity": 1,
      "remainingQuantity": 1
    },
    {
      "id": 201391,
      "tier": "C",
      "giftQuantity": 1,
      "remainingQuantity": 1
    },
    {
      "id": 118873,
      "tier": "C",
      "giftQuantity": 1,
      "remainingQuantity": 1
    },
    {
      "id": 106727,
      "tier": "C",
      "giftQuantity": 1,
      "remainingQuantity": 0
    },
    {
      "id": 71038,
      "tier": "C",
      "giftQuantity": 1,
      "remainingQuantity": 1
    },
    {
      "id": 45450,
      "tier": "C",
      "giftQuantity": 1,
      "remainingQuantity": 1
    },
    {
      "id": 25081,
      "tier": "C",
      "giftQuantity": 1,
      "remainingQuantity": 0
    },
    {
      "id": 25089,
      "tier": "C",
      "giftQuantity": 1,
      "remainingQuantity": 1
    },
    {
      "id": 71025,
      "tier": "C",
      "giftQuantity": 1,
      "remainingQuantity": 1
    },
    {
      "id": 78340,
      "tier": "C",
      "giftQuantity": 1,
      "remainingQuantity": 1
    },
    {
      "id": 194748,
      "tier": "C",
      "giftQuantity": 1,
      "remainingQuantity": 1
    },
    {
      "id": 45101,
      "tier": "C",
      "giftQuantity": 1,
      "remainingQuantity": 1
    },
    {
      "id": 69971,
      "tier": "C",
      "giftQuantity": 1,
      "remainingQuantity": 0
    },
    {
      "id": 153031,
      "tier": "C",
      "giftQuantity": 1,
      "remainingQuantity": 1
    },
    {
      "id": 151542,
      "tier": "C",
      "giftQuantity": 1,
      "remainingQuantity": 1
    },
    {
      "id": 151540,
      "tier": "C",
      "giftQuantity": 1,
      "remainingQuantity": 1
    },
    {
      "id": 139436,
      "tier": "C",
      "giftQuantity": 1,
      "remainingQuantity": 0
    },
    {
      "id": 129022,
      "tier": "C",
      "giftQuantity": 1,
      "remainingQuantity": 0
    },
    {
      "id": 71638,
      "tier": "C",
      "giftQuantity": 1,
      "remainingQuantity": 2
    },
    {
      "id": 71635,
      "tier": "C",
      "giftQuantity": 1,
      "remainingQuantity": 2
    },
    {
      "id": 163800,
      "tier": "C",
      "giftQuantity": 1,
      "remainingQuantity": 1
    },
    {
      "id": 190450,
      "tier": "C",
      "giftQuantity": 2,
      "remainingQuantity": 0
    },
    {
      "id": 190331,
      "tier": "C",
      "giftQuantity": 2,
      "remainingQuantity": 0
    },
    {
      "id": 204705,
      "tier": "C",
      "giftQuantity": 2500,
      "remainingQuantity": 5
    },
    {
      "id": 190329,
      "tier": "C",
      "giftQuantity": 2,
      "remainingQuantity": 3
    },
    {
      "id": 190327,
      "tier": "C",
      "giftQuantity": 2,
      "remainingQuantity": 9
    },
    {
      "id": 190324,
      "tier": "C",
      "giftQuantity": 2,
      "remainingQuantity": 10
    },
    {
      "id": 190321,
      "tier": "C",
      "giftQuantity": 2,
      "remainingQuantity": 10
    },
    {
      "id": 190316,
      "tier": "C",
      "giftQuantity": 5,
      "remainingQuantity": 5
    },
    {
      "id": 197794,
      "tier": "C",
      "giftQuantity": 10,
      "remainingQuantity": 2
    },
    {
      "id": 193565,
      "tier": "C",
      "giftQuantity": 1,
      "remainingQuantity": 5
    },
    {
      "id": 194013,
      "tier": "C",
      "giftQuantity": 1,
      "remainingQuantity": 4
    },
    {
      "id": 192994,
      "tier": "C",
      "giftQuantity": 1,
      "remainingQuantity": 5
    },
    {
      "id": 116794,
      "tier": "C",
      "giftQuantity": 1,
      "remainingQuantity": 3
    },
    {
      "id": 128311,
      "tier": "C",
      "giftQuantity": 1,
      "remainingQuantity": 3
    },
    {
      "id": 194059,
      "tier": "C",
      "giftQuantity": 1,
      "remainingQuantity": 5
    },
    {
      "id": 193476,
      "tier": "C",
      "giftQuantity": 1,
      "remainingQuantity": 2
    },
    {
      "id": 161918,
      "tier": "D",
      "giftQuantity": 1,
      "remainingQuantity": 0
    },
    {
      "id": 167975,
      "tier": "D",
      "giftQuantity": 1,
      "remainingQuantity": 1
    },
    {
      "id": 164318,
      "tier": "D",
      "giftQuantity": 1,
      "remainingQuantity": 0
    },
    {
      "id": 164355,
      "tier": "D",
      "giftQuantity": 1,
      "remainingQuantity": 0
    },
    {
      "id": 164346,
      "tier": "D",
      "giftQuantity": 1,
      "remainingQuantity": 0
    },
    {
      "id": 164481,
      "tier": "D",
      "giftQuantity": 1,
      "remainingQuantity": 1
    },
    {
      "id": 118336,
      "tier": "D",
      "giftQuantity": 1,
      "remainingQuantity": 1
    },
    {
      "id": 118346,
      "tier": "D",
      "giftQuantity": 1,
      "remainingQuantity": 2
    },
    {
      "id": 118345,
      "tier": "D",
      "giftQuantity": 1,
      "remainingQuantity": 2
    },
    {
      "id": 190450,
      "tier": "D",
      "giftQuantity": 5,
      "remainingQuantity": 0
    },
    {
      "id": 190331,
      "tier": "D",
      "giftQuantity": 5,
      "remainingQuantity": 1
    },
    {
      "id": 204705,
      "tier": "D",
      "giftQuantity": 5000,
      "remainingQuantity": 5
    },
    {
      "id": 190329,
      "tier": "D",
      "giftQuantity": 5,
      "remainingQuantity": 3
    },
    {
      "id": 190327,
      "tier": "D",
      "giftQuantity": 5,
      "remainingQuantity": 10
    },
    {
      "id": 190324,
      "tier": "D",
      "giftQuantity": 5,
      "remainingQuantity": 9
    },
    {
      "id": 190321,
      "tier": "D",
      "giftQuantity": 5,
      "remainingQuantity": 10
    },
    {
      "id": 190316,
      "tier": "D",
      "giftQuantity": 10,
      "remainingQuantity": 10
    },
    {
      "id": 204463,
      "tier": "D",
      "giftQuantity": 1,
      "remainingQuantity": 3
    },
    {
      "id": 200054,
      "tier": "D",
      "giftQuantity": 1,
      "remainingQuantity": 9
    },
    {
      "id": 197794,
      "tier": "D",
      "giftQuantity": 20,
      "remainingQuantity": 1
    },
    {
      "id": 67151,
      "tier": "D",
      "giftQuantity": 1,
      "remainingQuantity": 2
    },
    {
      "id": 193032,
      "tier": "D",
      "giftQuantity": 1,
      "remainingQuantity": 2
    },
    {
      "id": 194056,
      "tier": "D",
      "giftQuantity": 1,
      "remainingQuantity": 0
    },
    {
      "id": 197719,
      "tier": "D",
      "giftQuantity": 1,
      "remainingQuantity": 0
    },
    {
      "id": 193033,
      "tier": "D",
      "giftQuantity": 1,
      "remainingQuantity": 0
    },
    {
      "id": 194060,
      "tier": "D",
      "giftQuantity": 1,
      "remainingQuantity": 0
    },
    {
      "id": 204705,
      "tier": "F",
      "giftQuantity": 10000,
      "remainingQuantity": 5
    },
    {
      "id": 190324,
      "tier": "F",
      "giftQuantity": 10,
      "remainingQuantity": 4
    },
    {
      "id": 204463,
      "tier": "F",
      "giftQuantity": 2,
      "remainingQuantity": 3
    },
    {
      "id": 193360,
      "tier": "F",
      "giftQuantity": 1,
      "remainingQuantity": 0
    },
    {
      "id": 95416,
      "tier": "F",
      "giftQuantity": 1,
      "remainingQuantity": 1
    },
    {
      "id": 137686,
      "tier": "F",
      "giftQuantity": 1,
      "remainingQuantity": 0
    },
    {
      "id": 90655,
      "tier": "F",
      "giftQuantity": 1,
      "remainingQuantity": 1
    },
    {
      "id": 200469,
      "tier": "F",
      "giftQuantity": 1,
      "remainingQuantity": 1
    }
  ]
}